<?xml version="1.0" standalone="no"?>
<!DOCTYPE svg PUBLIC "-//W3C//DTD SVG 1.1//EN" "http://www.w3.org/Graphics/SVG/1.1/DTD/svg11.dtd">
<svg xmlns="http://www.w3.org/2000/svg">
<metadata>Copyright (C) 2016 by original authors @ fontello.com</metadata>
<defs>
<font id="icons" horiz-adv-x="1000" >
<font-face font-family="icons" font-weight="400" font-stretch="normal" units-per-em="1000" ascent="850" descent="-150" />
<missing-glyph horiz-adv-x="1000" />
<glyph glyph-name="down" unicode="&#xe800;" d="M505 346q15-15 15-37t-15-37l-245-245-245 245q-15 15-15 37t15 37 37 15 37-15l120-119 0 395q0 21 15 36t36 15 37-15 16-36l0-395 120 119q15 15 36 15t36-15z" horiz-adv-x="520" />

<glyph glyph-name="github" unicode="&#xf09b;" d="M429 779q116 0 215-58t156-156 57-215q0-140-82-252t-211-155q-15-3-22 4t-7 17q0 1 0 43t0 75q0 54-29 79 32 3 57 10t53 22 45 37 30 58 11 84q0 67-44 115 21 51-4 114-16 5-46-6t-51-25l-21-13q-52 15-107 15t-108-15q-8 6-23 15t-47 22-47 7q-25-63-5-114-44-48-44-115 0-47 12-83t29-59 45-37 52-22 57-10q-21-20-27-58-12-5-25-8t-32-3-36 12-31 35q-11 18-27 29t-28 14l-11 1q-12 0-16-2t-3-7 5-8 7-6l4-3q12-6 24-21t18-29l6-13q7-21 24-34t37-17 39-3 31 1l13 3q0-22 0-50t1-30q0-10-8-17t-22-4q-129 43-211 155t-82 252q0 117 58 215t155 156 216 58z m-267-616q2 4-3 7-6 1-8-1-1-4 4-7 5-3 7 1z m18-19q4 3-1 9-6 5-9 2-4-3 1-9 5-6 9-2z m16-25q6 4 0 11-4 7-9 3-5-3 0-10t9-4z m24-23q4 4-2 10-7 7-11 2-5-5 2-11 6-6 11-1z m32-14q1 6-8 9-8 2-10-4t7-9q8-3 11 4z m35-3q0 7-10 6-9 0-9-6 0-7 10-6 9 0 9 6z m32 5q-1 7-10 5-9-1-8-8t10-4 8 7z" horiz-adv-x="857.1" />

<glyph glyph-name="email" unicode="&#xf0e0;" d="M1000 454v-443q0-37-26-63t-63-27h-822q-36 0-63 27t-26 63v443q25-27 56-49 202-137 278-192 32-24 51-37t53-27 61-13h2q28 0 61 13t53 27 51 37q95 68 278 192 32 22 56 49z m0 164q0-44-27-84t-68-69q-210-146-262-181-5-4-23-17t-30-22-29-18-32-15-28-5h-2q-12 0-27 5t-32 15-30 18-30 22-23 17q-51 35-147 101t-114 80q-35 23-65 64t-31 77q0 43 23 72t66 29h822q36 0 63-26t26-63z" horiz-adv-x="1000" />

<glyph glyph-name="git" unicode="&#xf1d3;" d="M332 5q0 56-92 56-88 0-88-58 0-57 96-57 84 0 84 59z m-33 422q0 34-17 56t-49 23q-69 0-69-81 0-75 69-75 66 0 66 77z m150 180v-112q-20-7-44-13 9-24 9-47 0-70-41-120t-110-63q-22-5-33-15t-11-33q0-17 13-28t32-18 44-12 48-15 44-21 32-35 13-55q0-170-203-170-38 0-72 7t-65 23-49 46-18 71q0 92 102 125v3q-38 22-38 70 0 61 35 76v3q-40 13-66 60t-27 93q0 77 53 129t131 51q54 0 100-26 54 0 121 26z m178-491h-124q2 25 2 74v340q0 53-2 72h124q-3-19-3-69v-343q0-49 3-74z m335 124v-110q-40-22-97-22-35 0-60 12t-39 27-22 44-10 51-2 58v196h1v2q-4 0-11 0t-10 1q-12 0-33-3v106h54v42q0 30-4 50h127q-3-23-3-92h95v-106q-8 0-24 1t-24 1h-47v-204q0-73 48-73 34 0 61 19z m-321 528q0-32-22-57t-54-24q-32 0-54 24t-23 57q0 33 22 57t55 25q33 0 54-25t22-57z" horiz-adv-x="1000" />

<glyph glyph-name="telegram" unicode="&#xf1d8;" d="M984 844q19-13 15-36l-142-857q-3-16-18-25-8-5-18-5-6 0-13 3l-253 104-135-165q-10-13-27-13-7 0-12 2-11 4-17 13t-7 21v195l482 590-596-516-221 91q-20 8-22 30-1 23 18 33l928 536q9 5 18 5 11 0 20-6z" horiz-adv-x="1000" />
</font>
</defs>
</svg>